﻿# Tiled2Unity generated file. Do not modify by hand.
# Wavefront file for 'Earth_mesh_0023.obj'

# Vertices (Count = 100)
v -1408 -784 0
v -1424 -784 0
v -1424 -768 0
v -1408 -768 0
v -1392 -784 0
v -1408 -784 0
v -1408 -768 0
v -1392 -768 0
v -1376 -784 0
v -1392 -784 0
v -1392 -768 0
v -1376 -768 0
v -1360 -784 0
v -1376 -784 0
v -1376 -768 0
v -1360 -768 0
v -1344 -784 0
v -1360 -784 0
v -1360 -768 0
v -1344 -768 0
v -1408 -800 0
v -1424 -800 0
v -1424 -784 0
v -1408 -784 0
v -1392 -800 0
v -1408 -800 0
v -1408 -784 0
v -1392 -784 0
v -1376 -800 0
v -1392 -800 0
v -1392 -784 0
v -1376 -784 0
v -1360 -800 0
v -1376 -800 0
v -1376 -784 0
v -1360 -784 0
v -1344 -800 0
v -1360 -800 0
v -1360 -784 0
v -1344 -784 0
v -1408 -816 0
v -1424 -816 0
v -1424 -800 0
v -1408 -800 0
v -1392 -816 0
v -1408 -816 0
v -1408 -800 0
v -1392 -800 0
v -1376 -816 0
v -1392 -816 0
v -1392 -800 0
v -1376 -800 0
v -1360 -816 0
v -1376 -816 0
v -1376 -800 0
v -1360 -800 0
v -1344 -816 0
v -1360 -816 0
v -1360 -800 0
v -1344 -800 0
v -1408 -832 0
v -1424 -832 0
v -1424 -816 0
v -1408 -816 0
v -1392 -832 0
v -1408 -832 0
v -1408 -816 0
v -1392 -816 0
v -1376 -832 0
v -1392 -832 0
v -1392 -816 0
v -1376 -816 0
v -1360 -832 0
v -1376 -832 0
v -1376 -816 0
v -1360 -816 0
v -1344 -832 0
v -1360 -832 0
v -1360 -816 0
v -1344 -816 0
v -1408 -848 0
v -1424 -848 0
v -1424 -832 0
v -1408 -832 0
v -1392 -848 0
v -1408 -848 0
v -1408 -832 0
v -1392 -832 0
v -1376 -848 0
v -1392 -848 0
v -1392 -832 0
v -1376 -832 0
v -1360 -848 0
v -1376 -848 0
v -1376 -832 0
v -1360 -832 0
v -1344 -848 0
v -1360 -848 0
v -1360 -832 0
v -1344 -832 0

# Texture cooridinates (Count = 100)
vt 0.5920398 0.643617
vt 0.6716418 0.643617
vt 0.6716418 0.7287234
vt 0.5920398 0.7287234
vt 0.5074627 0.643617
vt 0.5870647 0.643617
vt 0.5870647 0.7287234
vt 0.5074627 0.7287234
vt 0.4228856 0.643617
vt 0.5024875 0.643617
vt 0.5024875 0.7287234
vt 0.4228856 0.7287234
vt 0.3383085 0.643617
vt 0.4179105 0.643617
vt 0.4179105 0.7287234
vt 0.3383085 0.7287234
vt 0.2537313 0.643617
vt 0.3333333 0.643617
vt 0.3333333 0.7287234
vt 0.2537313 0.7287234
vt 0.5920398 0.5531915
vt 0.6716418 0.5531915
vt 0.6716418 0.6382979
vt 0.5920398 0.6382979
vt 0.5074627 0.5531915
vt 0.5870647 0.5531915
vt 0.5870647 0.6382979
vt 0.5074627 0.6382979
vt 0.4228856 0.5531915
vt 0.5024875 0.5531915
vt 0.5024875 0.6382979
vt 0.4228856 0.6382979
vt 0.3383085 0.5531915
vt 0.4179105 0.5531915
vt 0.4179105 0.6382979
vt 0.3383085 0.6382979
vt 0.2537313 0.5531915
vt 0.3333333 0.5531915
vt 0.3333333 0.6382979
vt 0.2537313 0.6382979
vt 0.5920398 0.4627659
vt 0.6716418 0.4627659
vt 0.6716418 0.5478723
vt 0.5920398 0.5478723
vt 0.5074627 0.4627659
vt 0.5870647 0.4627659
vt 0.5870647 0.5478723
vt 0.5074627 0.5478723
vt 0.4228856 0.4627659
vt 0.5024875 0.4627659
vt 0.5024875 0.5478723
vt 0.4228856 0.5478723
vt 0.3383085 0.4627659
vt 0.4179105 0.4627659
vt 0.4179105 0.5478723
vt 0.3383085 0.5478723
vt 0.2537313 0.4627659
vt 0.3333333 0.4627659
vt 0.3333333 0.5478723
vt 0.2537313 0.5478723
vt 0.5920398 0.3723404
vt 0.6716418 0.3723404
vt 0.6716418 0.4574468
vt 0.5920398 0.4574468
vt 0.5074627 0.3723404
vt 0.5870647 0.3723404
vt 0.5870647 0.4574468
vt 0.5074627 0.4574468
vt 0.4228856 0.3723404
vt 0.5024875 0.3723404
vt 0.5024875 0.4574468
vt 0.4228856 0.4574468
vt 0.3383085 0.3723404
vt 0.4179105 0.3723404
vt 0.4179105 0.4574468
vt 0.3383085 0.4574468
vt 0.2537313 0.3723404
vt 0.3333333 0.3723404
vt 0.3333333 0.4574468
vt 0.2537313 0.4574468
vt 0.5920398 0.2819149
vt 0.6716418 0.2819149
vt 0.6716418 0.3670213
vt 0.5920398 0.3670213
vt 0.5074627 0.2819149
vt 0.5870647 0.2819149
vt 0.5870647 0.3670213
vt 0.5074627 0.3670213
vt 0.4228856 0.2819149
vt 0.5024875 0.2819149
vt 0.5024875 0.3670213
vt 0.4228856 0.3670213
vt 0.3383085 0.2819149
vt 0.4179105 0.2819149
vt 0.4179105 0.3670213
vt 0.3383085 0.3670213
vt 0.2537313 0.2819149
vt 0.3333333 0.2819149
vt 0.3333333 0.3670213
vt 0.2537313 0.3670213

# Normal
vn 0 0 -1

# Mesh description
g Earth_mesh_0023

# Faces
f 1/1/1 2/2/1 3/3/1 4/4/1
f 5/5/1 6/6/1 7/7/1 8/8/1
f 9/9/1 10/10/1 11/11/1 12/12/1
f 13/13/1 14/14/1 15/15/1 16/16/1
f 17/17/1 18/18/1 19/19/1 20/20/1
f 21/21/1 22/22/1 23/23/1 24/24/1
f 25/25/1 26/26/1 27/27/1 28/28/1
f 29/29/1 30/30/1 31/31/1 32/32/1
f 33/33/1 34/34/1 35/35/1 36/36/1
f 37/37/1 38/38/1 39/39/1 40/40/1
f 41/41/1 42/42/1 43/43/1 44/44/1
f 45/45/1 46/46/1 47/47/1 48/48/1
f 49/49/1 50/50/1 51/51/1 52/52/1
f 53/53/1 54/54/1 55/55/1 56/56/1
f 57/57/1 58/58/1 59/59/1 60/60/1
f 61/61/1 62/62/1 63/63/1 64/64/1
f 65/65/1 66/66/1 67/67/1 68/68/1
f 69/69/1 70/70/1 71/71/1 72/72/1
f 73/73/1 74/74/1 75/75/1 76/76/1
f 77/77/1 78/78/1 79/79/1 80/80/1
f 81/81/1 82/82/1 83/83/1 84/84/1
f 85/85/1 86/86/1 87/87/1 88/88/1
f 89/89/1 90/90/1 91/91/1 92/92/1
f 93/93/1 94/94/1 95/95/1 96/96/1
f 97/97/1 98/98/1 99/99/1 100/100/1

