﻿# Tiled2Unity generated file. Do not modify by hand.
# Wavefront file for 'Earth_mesh_0004.obj'

# Vertices (Count = 140)
v -64 -528 0
v -80 -528 0
v -80 -512 0
v -64 -512 0
v -48 -528 0
v -64 -528 0
v -64 -512 0
v -48 -512 0
v -32 -528 0
v -48 -528 0
v -48 -512 0
v -32 -512 0
v -16 -528 0
v -32 -528 0
v -32 -512 0
v -16 -512 0
v 0 -528 0
v -16 -528 0
v -16 -512 0
v 0 -512 0
v -64 -544 0
v -80 -544 0
v -80 -528 0
v -64 -528 0
v -48 -544 0
v -64 -544 0
v -64 -528 0
v -48 -528 0
v -32 -544 0
v -48 -544 0
v -48 -528 0
v -32 -528 0
v -16 -544 0
v -32 -544 0
v -32 -528 0
v -16 -528 0
v 0 -544 0
v -16 -544 0
v -16 -528 0
v 0 -528 0
v -64 -560 0
v -80 -560 0
v -80 -544 0
v -64 -544 0
v -48 -560 0
v -64 -560 0
v -64 -544 0
v -48 -544 0
v -32 -560 0
v -48 -560 0
v -48 -544 0
v -32 -544 0
v -16 -560 0
v -32 -560 0
v -32 -544 0
v -16 -544 0
v 0 -560 0
v -16 -560 0
v -16 -544 0
v 0 -544 0
v -64 -576 0
v -80 -576 0
v -80 -560 0
v -64 -560 0
v -48 -576 0
v -64 -576 0
v -64 -560 0
v -48 -560 0
v -32 -576 0
v -48 -576 0
v -48 -560 0
v -32 -560 0
v -16 -576 0
v -32 -576 0
v -32 -560 0
v -16 -560 0
v 0 -576 0
v -16 -576 0
v -16 -560 0
v 0 -560 0
v -64 -592 0
v -80 -592 0
v -80 -576 0
v -64 -576 0
v -48 -592 0
v -64 -592 0
v -64 -576 0
v -48 -576 0
v -32 -592 0
v -48 -592 0
v -48 -576 0
v -32 -576 0
v -16 -592 0
v -32 -592 0
v -32 -576 0
v -16 -576 0
v 0 -592 0
v -16 -592 0
v -16 -576 0
v 0 -576 0
v -64 -608 0
v -80 -608 0
v -80 -592 0
v -64 -592 0
v -48 -608 0
v -64 -608 0
v -64 -592 0
v -48 -592 0
v -32 -608 0
v -48 -608 0
v -48 -592 0
v -32 -592 0
v -16 -608 0
v -32 -608 0
v -32 -592 0
v -16 -592 0
v 0 -608 0
v -16 -608 0
v -16 -592 0
v 0 -592 0
v -64 -624 0
v -80 -624 0
v -80 -608 0
v -64 -608 0
v -48 -624 0
v -64 -624 0
v -64 -608 0
v -48 -608 0
v -32 -624 0
v -48 -624 0
v -48 -608 0
v -32 -608 0
v -16 -624 0
v -32 -624 0
v -32 -608 0
v -16 -608 0
v 0 -624 0
v -16 -624 0
v -16 -608 0
v 0 -608 0

# Texture cooridinates (Count = 140)
vt 0.7120419 0.7572815
vt 0.7958115 0.7572815
vt 0.7958115 0.8349515
vt 0.7120419 0.8349515
vt 0.6230366 0.7572815
vt 0.7068063 0.7572815
vt 0.7068063 0.8349515
vt 0.6230366 0.8349515
vt 0.5340314 0.7572815
vt 0.6178011 0.7572815
vt 0.6178011 0.8349515
vt 0.5340314 0.8349515
vt 0.4450262 0.7572815
vt 0.5287958 0.7572815
vt 0.5287958 0.8349515
vt 0.4450262 0.8349515
vt 0.356021 0.7572815
vt 0.4397906 0.7572815
vt 0.4397906 0.8349515
vt 0.356021 0.8349515
vt 0.7120419 0.6747572
vt 0.7958115 0.6747572
vt 0.7958115 0.7524272
vt 0.7120419 0.7524272
vt 0.6230366 0.6747572
vt 0.7068063 0.6747572
vt 0.7068063 0.7524272
vt 0.6230366 0.7524272
vt 0.5340314 0.6747572
vt 0.6178011 0.6747572
vt 0.6178011 0.7524272
vt 0.5340314 0.7524272
vt 0.4450262 0.6747572
vt 0.5287958 0.6747572
vt 0.5287958 0.7524272
vt 0.4450262 0.7524272
vt 0.356021 0.6747572
vt 0.4397906 0.6747572
vt 0.4397906 0.7524272
vt 0.356021 0.7524272
vt 0.7120419 0.592233
vt 0.7958115 0.592233
vt 0.7958115 0.6699029
vt 0.7120419 0.6699029
vt 0.6230366 0.592233
vt 0.7068063 0.592233
vt 0.7068063 0.6699029
vt 0.6230366 0.6699029
vt 0.5340314 0.592233
vt 0.6178011 0.592233
vt 0.6178011 0.6699029
vt 0.5340314 0.6699029
vt 0.4450262 0.592233
vt 0.5287958 0.592233
vt 0.5287958 0.6699029
vt 0.4450262 0.6699029
vt 0.356021 0.592233
vt 0.4397906 0.592233
vt 0.4397906 0.6699029
vt 0.356021 0.6699029
vt 0.7120419 0.5097088
vt 0.7958115 0.5097088
vt 0.7958115 0.5873786
vt 0.7120419 0.5873786
vt 0.6230366 0.5097088
vt 0.7068063 0.5097088
vt 0.7068063 0.5873786
vt 0.6230366 0.5873786
vt 0.5340314 0.5097088
vt 0.6178011 0.5097088
vt 0.6178011 0.5873786
vt 0.5340314 0.5873786
vt 0.4450262 0.5097088
vt 0.5287958 0.5097088
vt 0.5287958 0.5873786
vt 0.4450262 0.5873786
vt 0.356021 0.5097088
vt 0.4397906 0.5097088
vt 0.4397906 0.5873786
vt 0.356021 0.5873786
vt 0.7120419 0.4271845
vt 0.7958115 0.4271845
vt 0.7958115 0.5048544
vt 0.7120419 0.5048544
vt 0.6230366 0.4271845
vt 0.7068063 0.4271845
vt 0.7068063 0.5048544
vt 0.6230366 0.5048544
vt 0.5340314 0.4271845
vt 0.6178011 0.4271845
vt 0.6178011 0.5048544
vt 0.5340314 0.5048544
vt 0.4450262 0.4271845
vt 0.5287958 0.4271845
vt 0.5287958 0.5048544
vt 0.4450262 0.5048544
vt 0.356021 0.4271845
vt 0.4397906 0.4271845
vt 0.4397906 0.5048544
vt 0.356021 0.5048544
vt 0.7120419 0.3446602
vt 0.7958115 0.3446602
vt 0.7958115 0.4223301
vt 0.7120419 0.4223301
vt 0.6230366 0.3446602
vt 0.7068063 0.3446602
vt 0.7068063 0.4223301
vt 0.6230366 0.4223301
vt 0.5340314 0.3446602
vt 0.6178011 0.3446602
vt 0.6178011 0.4223301
vt 0.5340314 0.4223301
vt 0.4450262 0.3446602
vt 0.5287958 0.3446602
vt 0.5287958 0.4223301
vt 0.4450262 0.4223301
vt 0.356021 0.3446602
vt 0.4397906 0.3446602
vt 0.4397906 0.4223301
vt 0.356021 0.4223301
vt 0.7120419 0.2621359
vt 0.7958115 0.2621359
vt 0.7958115 0.3398058
vt 0.7120419 0.3398058
vt 0.6230366 0.2621359
vt 0.7068063 0.2621359
vt 0.7068063 0.3398058
vt 0.6230366 0.3398058
vt 0.5340314 0.2621359
vt 0.6178011 0.2621359
vt 0.6178011 0.3398058
vt 0.5340314 0.3398058
vt 0.4450262 0.2621359
vt 0.5287958 0.2621359
vt 0.5287958 0.3398058
vt 0.4450262 0.3398058
vt 0.356021 0.2621359
vt 0.4397906 0.2621359
vt 0.4397906 0.3398058
vt 0.356021 0.3398058

# Normal
vn 0 0 -1

# Mesh description
g Earth_mesh_0004

# Faces
f 1/1/1 2/2/1 3/3/1 4/4/1
f 5/5/1 6/6/1 7/7/1 8/8/1
f 9/9/1 10/10/1 11/11/1 12/12/1
f 13/13/1 14/14/1 15/15/1 16/16/1
f 17/17/1 18/18/1 19/19/1 20/20/1
f 21/21/1 22/22/1 23/23/1 24/24/1
f 25/25/1 26/26/1 27/27/1 28/28/1
f 29/29/1 30/30/1 31/31/1 32/32/1
f 33/33/1 34/34/1 35/35/1 36/36/1
f 37/37/1 38/38/1 39/39/1 40/40/1
f 41/41/1 42/42/1 43/43/1 44/44/1
f 45/45/1 46/46/1 47/47/1 48/48/1
f 49/49/1 50/50/1 51/51/1 52/52/1
f 53/53/1 54/54/1 55/55/1 56/56/1
f 57/57/1 58/58/1 59/59/1 60/60/1
f 61/61/1 62/62/1 63/63/1 64/64/1
f 65/65/1 66/66/1 67/67/1 68/68/1
f 69/69/1 70/70/1 71/71/1 72/72/1
f 73/73/1 74/74/1 75/75/1 76/76/1
f 77/77/1 78/78/1 79/79/1 80/80/1
f 81/81/1 82/82/1 83/83/1 84/84/1
f 85/85/1 86/86/1 87/87/1 88/88/1
f 89/89/1 90/90/1 91/91/1 92/92/1
f 93/93/1 94/94/1 95/95/1 96/96/1
f 97/97/1 98/98/1 99/99/1 100/100/1
f 101/101/1 102/102/1 103/103/1 104/104/1
f 105/105/1 106/106/1 107/107/1 108/108/1
f 109/109/1 110/110/1 111/111/1 112/112/1
f 113/113/1 114/114/1 115/115/1 116/116/1
f 117/117/1 118/118/1 119/119/1 120/120/1
f 121/121/1 122/122/1 123/123/1 124/124/1
f 125/125/1 126/126/1 127/127/1 128/128/1
f 129/129/1 130/130/1 131/131/1 132/132/1
f 133/133/1 134/134/1 135/135/1 136/136/1
f 137/137/1 138/138/1 139/139/1 140/140/1

