﻿# Tiled2Unity generated file. Do not modify by hand.
# Wavefront file for 'Earth_mesh_0012.obj'

# Vertices (Count = 96)
v -1296 -480 0
v -1312 -480 0
v -1312 -464 0
v -1296 -464 0
v -1280 -480 0
v -1296 -480 0
v -1296 -464 0
v -1280 -464 0
v -1264 -480 0
v -1280 -480 0
v -1280 -464 0
v -1264 -464 0
v -1248 -480 0
v -1264 -480 0
v -1264 -464 0
v -1248 -464 0
v -1296 -496 0
v -1312 -496 0
v -1312 -480 0
v -1296 -480 0
v -1280 -496 0
v -1296 -496 0
v -1296 -480 0
v -1280 -480 0
v -1264 -496 0
v -1280 -496 0
v -1280 -480 0
v -1264 -480 0
v -1248 -496 0
v -1264 -496 0
v -1264 -480 0
v -1248 -480 0
v -1296 -512 0
v -1312 -512 0
v -1312 -496 0
v -1296 -496 0
v -1280 -512 0
v -1296 -512 0
v -1296 -496 0
v -1280 -496 0
v -1264 -512 0
v -1280 -512 0
v -1280 -496 0
v -1264 -496 0
v -1248 -512 0
v -1264 -512 0
v -1264 -496 0
v -1248 -496 0
v -1296 -528 0
v -1312 -528 0
v -1312 -512 0
v -1296 -512 0
v -1280 -528 0
v -1296 -528 0
v -1296 -512 0
v -1280 -512 0
v -1264 -528 0
v -1280 -528 0
v -1280 -512 0
v -1264 -512 0
v -1248 -528 0
v -1264 -528 0
v -1264 -512 0
v -1248 -512 0
v -1296 -544 0
v -1312 -544 0
v -1312 -528 0
v -1296 -528 0
v -1280 -544 0
v -1296 -544 0
v -1296 -528 0
v -1280 -528 0
v -1264 -544 0
v -1280 -544 0
v -1280 -528 0
v -1264 -528 0
v -1248 -544 0
v -1264 -544 0
v -1264 -528 0
v -1248 -528 0
v -1296 -560 0
v -1312 -560 0
v -1312 -544 0
v -1296 -544 0
v -1280 -560 0
v -1296 -560 0
v -1296 -544 0
v -1280 -544 0
v -1264 -560 0
v -1280 -560 0
v -1280 -544 0
v -1264 -544 0
v -1248 -560 0
v -1264 -560 0
v -1264 -544 0
v -1248 -544 0

# Texture cooridinates (Count = 96)
vt 0.5862069 0.6778846
vt 0.6650246 0.6778846
vt 0.6650246 0.7548077
vt 0.5862069 0.7548077
vt 0.502463 0.6778846
vt 0.5812808 0.6778846
vt 0.5812808 0.7548077
vt 0.502463 0.7548077
vt 0.4187192 0.6778846
vt 0.497537 0.6778846
vt 0.497537 0.7548077
vt 0.4187192 0.7548077
vt 0.3349754 0.6778846
vt 0.4137931 0.6778846
vt 0.4137931 0.7548077
vt 0.3349754 0.7548077
vt 0.5862069 0.5961539
vt 0.6650246 0.5961539
vt 0.6650246 0.6730769
vt 0.5862069 0.6730769
vt 0.502463 0.5961539
vt 0.5812808 0.5961539
vt 0.5812808 0.6730769
vt 0.502463 0.6730769
vt 0.4187192 0.5961539
vt 0.497537 0.5961539
vt 0.497537 0.6730769
vt 0.4187192 0.6730769
vt 0.3349754 0.5961539
vt 0.4137931 0.5961539
vt 0.4137931 0.6730769
vt 0.3349754 0.6730769
vt 0.5862069 0.5144231
vt 0.6650246 0.5144231
vt 0.6650246 0.5913461
vt 0.5862069 0.5913461
vt 0.502463 0.5144231
vt 0.5812808 0.5144231
vt 0.5812808 0.5913461
vt 0.502463 0.5913461
vt 0.4187192 0.5144231
vt 0.497537 0.5144231
vt 0.497537 0.5913461
vt 0.4187192 0.5913461
vt 0.3349754 0.5144231
vt 0.4137931 0.5144231
vt 0.4137931 0.5913461
vt 0.3349754 0.5913461
vt 0.5862069 0.4326923
vt 0.6650246 0.4326923
vt 0.6650246 0.5096154
vt 0.5862069 0.5096154
vt 0.502463 0.4326923
vt 0.5812808 0.4326923
vt 0.5812808 0.5096154
vt 0.502463 0.5096154
vt 0.4187192 0.4326923
vt 0.497537 0.4326923
vt 0.497537 0.5096154
vt 0.4187192 0.5096154
vt 0.3349754 0.4326923
vt 0.4137931 0.4326923
vt 0.4137931 0.5096154
vt 0.3349754 0.5096154
vt 0.5862069 0.3509616
vt 0.6650246 0.3509616
vt 0.6650246 0.4278846
vt 0.5862069 0.4278846
vt 0.502463 0.3509616
vt 0.5812808 0.3509616
vt 0.5812808 0.4278846
vt 0.502463 0.4278846
vt 0.4187192 0.3509616
vt 0.497537 0.3509616
vt 0.497537 0.4278846
vt 0.4187192 0.4278846
vt 0.3349754 0.3509616
vt 0.4137931 0.3509616
vt 0.4137931 0.4278846
vt 0.3349754 0.4278846
vt 0.5862069 0.2692308
vt 0.6650246 0.2692308
vt 0.6650246 0.3461539
vt 0.5862069 0.3461539
vt 0.502463 0.2692308
vt 0.5812808 0.2692308
vt 0.5812808 0.3461539
vt 0.502463 0.3461539
vt 0.4187192 0.2692308
vt 0.497537 0.2692308
vt 0.497537 0.3461539
vt 0.4187192 0.3461539
vt 0.3349754 0.2692308
vt 0.4137931 0.2692308
vt 0.4137931 0.3461539
vt 0.3349754 0.3461539

# Normal
vn 0 0 -1

# Mesh description
g Earth_mesh_0012

# Faces
f 1/1/1 2/2/1 3/3/1 4/4/1
f 5/5/1 6/6/1 7/7/1 8/8/1
f 9/9/1 10/10/1 11/11/1 12/12/1
f 13/13/1 14/14/1 15/15/1 16/16/1
f 17/17/1 18/18/1 19/19/1 20/20/1
f 21/21/1 22/22/1 23/23/1 24/24/1
f 25/25/1 26/26/1 27/27/1 28/28/1
f 29/29/1 30/30/1 31/31/1 32/32/1
f 33/33/1 34/34/1 35/35/1 36/36/1
f 37/37/1 38/38/1 39/39/1 40/40/1
f 41/41/1 42/42/1 43/43/1 44/44/1
f 45/45/1 46/46/1 47/47/1 48/48/1
f 49/49/1 50/50/1 51/51/1 52/52/1
f 53/53/1 54/54/1 55/55/1 56/56/1
f 57/57/1 58/58/1 59/59/1 60/60/1
f 61/61/1 62/62/1 63/63/1 64/64/1
f 65/65/1 66/66/1 67/67/1 68/68/1
f 69/69/1 70/70/1 71/71/1 72/72/1
f 73/73/1 74/74/1 75/75/1 76/76/1
f 77/77/1 78/78/1 79/79/1 80/80/1
f 81/81/1 82/82/1 83/83/1 84/84/1
f 85/85/1 86/86/1 87/87/1 88/88/1
f 89/89/1 90/90/1 91/91/1 92/92/1
f 93/93/1 94/94/1 95/95/1 96/96/1

