﻿# Tiled2Unity generated file. Do not modify by hand.
# Wavefront file for 'Earth_mesh_0010.obj'

# Vertices (Count = 396)
v -1200 -544 0
v -1216 -544 0
v -1216 -528 0
v -1200 -528 0
v -1184 -544 0
v -1200 -544 0
v -1200 -528 0
v -1184 -528 0
v -1168 -544 0
v -1184 -544 0
v -1184 -528 0
v -1168 -528 0
v -1152 -544 0
v -1168 -544 0
v -1168 -528 0
v -1152 -528 0
v -1136 -544 0
v -1152 -544 0
v -1152 -528 0
v -1136 -528 0
v -1120 -544 0
v -1136 -544 0
v -1136 -528 0
v -1120 -528 0
v -1104 -544 0
v -1120 -544 0
v -1120 -528 0
v -1104 -528 0
v -1088 -544 0
v -1104 -544 0
v -1104 -528 0
v -1088 -528 0
v -1072 -544 0
v -1088 -544 0
v -1088 -528 0
v -1072 -528 0
v -1056 -544 0
v -1072 -544 0
v -1072 -528 0
v -1056 -528 0
v -1040 -544 0
v -1056 -544 0
v -1056 -528 0
v -1040 -528 0
v -1200 -560 0
v -1216 -560 0
v -1216 -544 0
v -1200 -544 0
v -1184 -560 0
v -1200 -560 0
v -1200 -544 0
v -1184 -544 0
v -1168 -560 0
v -1184 -560 0
v -1184 -544 0
v -1168 -544 0
v -1152 -560 0
v -1168 -560 0
v -1168 -544 0
v -1152 -544 0
v -1136 -560 0
v -1152 -560 0
v -1152 -544 0
v -1136 -544 0
v -1120 -560 0
v -1136 -560 0
v -1136 -544 0
v -1120 -544 0
v -1104 -560 0
v -1120 -560 0
v -1120 -544 0
v -1104 -544 0
v -1088 -560 0
v -1104 -560 0
v -1104 -544 0
v -1088 -544 0
v -1072 -560 0
v -1088 -560 0
v -1088 -544 0
v -1072 -544 0
v -1056 -560 0
v -1072 -560 0
v -1072 -544 0
v -1056 -544 0
v -1040 -560 0
v -1056 -560 0
v -1056 -544 0
v -1040 -544 0
v -1200 -576 0
v -1216 -576 0
v -1216 -560 0
v -1200 -560 0
v -1184 -576 0
v -1200 -576 0
v -1200 -560 0
v -1184 -560 0
v -1168 -576 0
v -1184 -576 0
v -1184 -560 0
v -1168 -560 0
v -1152 -576 0
v -1168 -576 0
v -1168 -560 0
v -1152 -560 0
v -1136 -576 0
v -1152 -576 0
v -1152 -560 0
v -1136 -560 0
v -1120 -576 0
v -1136 -576 0
v -1136 -560 0
v -1120 -560 0
v -1104 -576 0
v -1120 -576 0
v -1120 -560 0
v -1104 -560 0
v -1088 -576 0
v -1104 -576 0
v -1104 -560 0
v -1088 -560 0
v -1072 -576 0
v -1088 -576 0
v -1088 -560 0
v -1072 -560 0
v -1056 -576 0
v -1072 -576 0
v -1072 -560 0
v -1056 -560 0
v -1040 -576 0
v -1056 -576 0
v -1056 -560 0
v -1040 -560 0
v -1200 -592 0
v -1216 -592 0
v -1216 -576 0
v -1200 -576 0
v -1184 -592 0
v -1200 -592 0
v -1200 -576 0
v -1184 -576 0
v -1168 -592 0
v -1184 -592 0
v -1184 -576 0
v -1168 -576 0
v -1152 -592 0
v -1168 -592 0
v -1168 -576 0
v -1152 -576 0
v -1136 -592 0
v -1152 -592 0
v -1152 -576 0
v -1136 -576 0
v -1120 -592 0
v -1136 -592 0
v -1136 -576 0
v -1120 -576 0
v -1104 -592 0
v -1120 -592 0
v -1120 -576 0
v -1104 -576 0
v -1088 -592 0
v -1104 -592 0
v -1104 -576 0
v -1088 -576 0
v -1072 -592 0
v -1088 -592 0
v -1088 -576 0
v -1072 -576 0
v -1056 -592 0
v -1072 -592 0
v -1072 -576 0
v -1056 -576 0
v -1040 -592 0
v -1056 -592 0
v -1056 -576 0
v -1040 -576 0
v -1200 -608 0
v -1216 -608 0
v -1216 -592 0
v -1200 -592 0
v -1184 -608 0
v -1200 -608 0
v -1200 -592 0
v -1184 -592 0
v -1168 -608 0
v -1184 -608 0
v -1184 -592 0
v -1168 -592 0
v -1152 -608 0
v -1168 -608 0
v -1168 -592 0
v -1152 -592 0
v -1136 -608 0
v -1152 -608 0
v -1152 -592 0
v -1136 -592 0
v -1120 -608 0
v -1136 -608 0
v -1136 -592 0
v -1120 -592 0
v -1104 -608 0
v -1120 -608 0
v -1120 -592 0
v -1104 -592 0
v -1088 -608 0
v -1104 -608 0
v -1104 -592 0
v -1088 -592 0
v -1072 -608 0
v -1088 -608 0
v -1088 -592 0
v -1072 -592 0
v -1056 -608 0
v -1072 -608 0
v -1072 -592 0
v -1056 -592 0
v -1040 -608 0
v -1056 -608 0
v -1056 -592 0
v -1040 -592 0
v -1200 -624 0
v -1216 -624 0
v -1216 -608 0
v -1200 -608 0
v -1184 -624 0
v -1200 -624 0
v -1200 -608 0
v -1184 -608 0
v -1168 -624 0
v -1184 -624 0
v -1184 -608 0
v -1168 -608 0
v -1152 -624 0
v -1168 -624 0
v -1168 -608 0
v -1152 -608 0
v -1136 -624 0
v -1152 -624 0
v -1152 -608 0
v -1136 -608 0
v -1120 -624 0
v -1136 -624 0
v -1136 -608 0
v -1120 -608 0
v -1104 -624 0
v -1120 -624 0
v -1120 -608 0
v -1104 -608 0
v -1088 -624 0
v -1104 -624 0
v -1104 -608 0
v -1088 -608 0
v -1072 -624 0
v -1088 -624 0
v -1088 -608 0
v -1072 -608 0
v -1056 -624 0
v -1072 -624 0
v -1072 -608 0
v -1056 -608 0
v -1040 -624 0
v -1056 -624 0
v -1056 -608 0
v -1040 -608 0
v -1200 -640 0
v -1216 -640 0
v -1216 -624 0
v -1200 -624 0
v -1184 -640 0
v -1200 -640 0
v -1200 -624 0
v -1184 -624 0
v -1168 -640 0
v -1184 -640 0
v -1184 -624 0
v -1168 -624 0
v -1152 -640 0
v -1168 -640 0
v -1168 -624 0
v -1152 -624 0
v -1136 -640 0
v -1152 -640 0
v -1152 -624 0
v -1136 -624 0
v -1120 -640 0
v -1136 -640 0
v -1136 -624 0
v -1120 -624 0
v -1104 -640 0
v -1120 -640 0
v -1120 -624 0
v -1104 -624 0
v -1088 -640 0
v -1104 -640 0
v -1104 -624 0
v -1088 -624 0
v -1072 -640 0
v -1088 -640 0
v -1088 -624 0
v -1072 -624 0
v -1056 -640 0
v -1072 -640 0
v -1072 -624 0
v -1056 -624 0
v -1040 -640 0
v -1056 -640 0
v -1056 -624 0
v -1040 -624 0
v -1200 -656 0
v -1216 -656 0
v -1216 -640 0
v -1200 -640 0
v -1184 -656 0
v -1200 -656 0
v -1200 -640 0
v -1184 -640 0
v -1168 -656 0
v -1184 -656 0
v -1184 -640 0
v -1168 -640 0
v -1152 -656 0
v -1168 -656 0
v -1168 -640 0
v -1152 -640 0
v -1136 -656 0
v -1152 -656 0
v -1152 -640 0
v -1136 -640 0
v -1120 -656 0
v -1136 -656 0
v -1136 -640 0
v -1120 -640 0
v -1104 -656 0
v -1120 -656 0
v -1120 -640 0
v -1104 -640 0
v -1088 -656 0
v -1104 -656 0
v -1104 -640 0
v -1088 -640 0
v -1072 -656 0
v -1088 -656 0
v -1088 -640 0
v -1072 -640 0
v -1056 -656 0
v -1072 -656 0
v -1072 -640 0
v -1056 -640 0
v -1040 -656 0
v -1056 -656 0
v -1056 -640 0
v -1040 -640 0
v -1200 -672 0
v -1216 -672 0
v -1216 -656 0
v -1200 -656 0
v -1184 -672 0
v -1200 -672 0
v -1200 -656 0
v -1184 -656 0
v -1168 -672 0
v -1184 -672 0
v -1184 -656 0
v -1168 -656 0
v -1152 -672 0
v -1168 -672 0
v -1168 -656 0
v -1152 -656 0
v -1136 -672 0
v -1152 -672 0
v -1152 -656 0
v -1136 -656 0
v -1120 -672 0
v -1136 -672 0
v -1136 -656 0
v -1120 -656 0
v -1104 -672 0
v -1120 -672 0
v -1120 -656 0
v -1104 -656 0
v -1088 -672 0
v -1104 -672 0
v -1104 -656 0
v -1088 -656 0
v -1072 -672 0
v -1088 -672 0
v -1088 -656 0
v -1072 -656 0
v -1056 -672 0
v -1072 -672 0
v -1072 -656 0
v -1056 -656 0
v -1040 -672 0
v -1056 -672 0
v -1056 -656 0
v -1040 -656 0

# Texture cooridinates (Count = 396)
vt 0.6131148 0.678344
vt 0.6393443 0.678344
vt 0.6393443 0.7292994
vt 0.6131148 0.7292994
vt 0.5852459 0.678344
vt 0.6114754 0.678344
vt 0.6114754 0.7292994
vt 0.5852459 0.7292994
vt 0.557377 0.678344
vt 0.5836065 0.678344
vt 0.5836065 0.7292994
vt 0.557377 0.7292994
vt 0.5295082 0.678344
vt 0.5557377 0.678344
vt 0.5557377 0.7292994
vt 0.5295082 0.7292994
vt 0.5016394 0.678344
vt 0.5278689 0.678344
vt 0.5278689 0.7292994
vt 0.5016394 0.7292994
vt 0.4737705 0.678344
vt 0.5 0.678344
vt 0.5 0.7292994
vt 0.4737705 0.7292994
vt 0.4459016 0.678344
vt 0.4721311 0.678344
vt 0.4721311 0.7292994
vt 0.4459016 0.7292994
vt 0.4180328 0.678344
vt 0.4442623 0.678344
vt 0.4442623 0.7292994
vt 0.4180328 0.7292994
vt 0.3901639 0.678344
vt 0.4163934 0.678344
vt 0.4163934 0.7292994
vt 0.3901639 0.7292994
vt 0.3622951 0.678344
vt 0.3885246 0.678344
vt 0.3885246 0.7292994
vt 0.3622951 0.7292994
vt 0.3344262 0.678344
vt 0.3606557 0.678344
vt 0.3606557 0.7292994
vt 0.3344262 0.7292994
vt 0.6131148 0.6242038
vt 0.6393443 0.6242038
vt 0.6393443 0.6751592
vt 0.6131148 0.6751592
vt 0.5852459 0.6242038
vt 0.6114754 0.6242038
vt 0.6114754 0.6751592
vt 0.5852459 0.6751592
vt 0.557377 0.6242038
vt 0.5836065 0.6242038
vt 0.5836065 0.6751592
vt 0.557377 0.6751592
vt 0.5295082 0.6242038
vt 0.5557377 0.6242038
vt 0.5557377 0.6751592
vt 0.5295082 0.6751592
vt 0.5016394 0.6242038
vt 0.5278689 0.6242038
vt 0.5278689 0.6751592
vt 0.5016394 0.6751592
vt 0.4737705 0.6242038
vt 0.5 0.6242038
vt 0.5 0.6751592
vt 0.4737705 0.6751592
vt 0.4459016 0.6242038
vt 0.4721311 0.6242038
vt 0.4721311 0.6751592
vt 0.4459016 0.6751592
vt 0.4180328 0.6242038
vt 0.4442623 0.6242038
vt 0.4442623 0.6751592
vt 0.4180328 0.6751592
vt 0.3901639 0.6242038
vt 0.4163934 0.6242038
vt 0.4163934 0.6751592
vt 0.3901639 0.6751592
vt 0.3622951 0.6242038
vt 0.3885246 0.6242038
vt 0.3885246 0.6751592
vt 0.3622951 0.6751592
vt 0.3344262 0.6242038
vt 0.3606557 0.6242038
vt 0.3606557 0.6751592
vt 0.3344262 0.6751592
vt 0.6131148 0.5700637
vt 0.6393443 0.5700637
vt 0.6393443 0.6210191
vt 0.6131148 0.6210191
vt 0.5852459 0.5700637
vt 0.6114754 0.5700637
vt 0.6114754 0.6210191
vt 0.5852459 0.6210191
vt 0.557377 0.5700637
vt 0.5836065 0.5700637
vt 0.5836065 0.6210191
vt 0.557377 0.6210191
vt 0.5295082 0.5700637
vt 0.5557377 0.5700637
vt 0.5557377 0.6210191
vt 0.5295082 0.6210191
vt 0.5016394 0.5700637
vt 0.5278689 0.5700637
vt 0.5278689 0.6210191
vt 0.5016394 0.6210191
vt 0.4737705 0.5700637
vt 0.5 0.5700637
vt 0.5 0.6210191
vt 0.4737705 0.6210191
vt 0.4459016 0.5700637
vt 0.4721311 0.5700637
vt 0.4721311 0.6210191
vt 0.4459016 0.6210191
vt 0.4180328 0.5700637
vt 0.4442623 0.5700637
vt 0.4442623 0.6210191
vt 0.4180328 0.6210191
vt 0.3901639 0.5700637
vt 0.4163934 0.5700637
vt 0.4163934 0.6210191
vt 0.3901639 0.6210191
vt 0.3622951 0.5700637
vt 0.3885246 0.5700637
vt 0.3885246 0.6210191
vt 0.3622951 0.6210191
vt 0.3344262 0.5700637
vt 0.3606557 0.5700637
vt 0.3606557 0.6210191
vt 0.3344262 0.6210191
vt 0.6131148 0.5159236
vt 0.6393443 0.5159236
vt 0.6393443 0.566879
vt 0.6131148 0.566879
vt 0.5852459 0.5159236
vt 0.6114754 0.5159236
vt 0.6114754 0.566879
vt 0.5852459 0.566879
vt 0.557377 0.5159236
vt 0.5836065 0.5159236
vt 0.5836065 0.566879
vt 0.557377 0.566879
vt 0.5295082 0.5159236
vt 0.5557377 0.5159236
vt 0.5557377 0.566879
vt 0.5295082 0.566879
vt 0.5016394 0.5159236
vt 0.5278689 0.5159236
vt 0.5278689 0.566879
vt 0.5016394 0.566879
vt 0.4737705 0.5159236
vt 0.5 0.5159236
vt 0.5 0.566879
vt 0.4737705 0.566879
vt 0.4459016 0.5159236
vt 0.4721311 0.5159236
vt 0.4721311 0.566879
vt 0.4459016 0.566879
vt 0.4180328 0.5159236
vt 0.4442623 0.5159236
vt 0.4442623 0.566879
vt 0.4180328 0.566879
vt 0.3901639 0.5159236
vt 0.4163934 0.5159236
vt 0.4163934 0.566879
vt 0.3901639 0.566879
vt 0.3622951 0.5159236
vt 0.3885246 0.5159236
vt 0.3885246 0.566879
vt 0.3622951 0.566879
vt 0.3344262 0.5159236
vt 0.3606557 0.5159236
vt 0.3606557 0.566879
vt 0.3344262 0.566879
vt 0.6131148 0.4617835
vt 0.6393443 0.4617835
vt 0.6393443 0.5127388
vt 0.6131148 0.5127388
vt 0.5852459 0.4617835
vt 0.6114754 0.4617835
vt 0.6114754 0.5127388
vt 0.5852459 0.5127388
vt 0.557377 0.4617835
vt 0.5836065 0.4617835
vt 0.5836065 0.5127388
vt 0.557377 0.5127388
vt 0.5295082 0.4617835
vt 0.5557377 0.4617835
vt 0.5557377 0.5127388
vt 0.5295082 0.5127388
vt 0.5016394 0.4617835
vt 0.5278689 0.4617835
vt 0.5278689 0.5127388
vt 0.5016394 0.5127388
vt 0.4737705 0.4617835
vt 0.5 0.4617835
vt 0.5 0.5127388
vt 0.4737705 0.5127388
vt 0.4459016 0.4617835
vt 0.4721311 0.4617835
vt 0.4721311 0.5127388
vt 0.4459016 0.5127388
vt 0.4180328 0.4617835
vt 0.4442623 0.4617835
vt 0.4442623 0.5127388
vt 0.4180328 0.5127388
vt 0.3901639 0.4617835
vt 0.4163934 0.4617835
vt 0.4163934 0.5127388
vt 0.3901639 0.5127388
vt 0.3622951 0.4617835
vt 0.3885246 0.4617835
vt 0.3885246 0.5127388
vt 0.3622951 0.5127388
vt 0.3344262 0.4617835
vt 0.3606557 0.4617835
vt 0.3606557 0.5127388
vt 0.3344262 0.5127388
vt 0.6131148 0.4076433
vt 0.6393443 0.4076433
vt 0.6393443 0.4585987
vt 0.6131148 0.4585987
vt 0.5852459 0.4076433
vt 0.6114754 0.4076433
vt 0.6114754 0.4585987
vt 0.5852459 0.4585987
vt 0.557377 0.4076433
vt 0.5836065 0.4076433
vt 0.5836065 0.4585987
vt 0.557377 0.4585987
vt 0.5295082 0.4076433
vt 0.5557377 0.4076433
vt 0.5557377 0.4585987
vt 0.5295082 0.4585987
vt 0.5016394 0.4076433
vt 0.5278689 0.4076433
vt 0.5278689 0.4585987
vt 0.5016394 0.4585987
vt 0.4737705 0.4076433
vt 0.5 0.4076433
vt 0.5 0.4585987
vt 0.4737705 0.4585987
vt 0.4459016 0.4076433
vt 0.4721311 0.4076433
vt 0.4721311 0.4585987
vt 0.4459016 0.4585987
vt 0.4180328 0.4076433
vt 0.4442623 0.4076433
vt 0.4442623 0.4585987
vt 0.4180328 0.4585987
vt 0.3901639 0.4076433
vt 0.4163934 0.4076433
vt 0.4163934 0.4585987
vt 0.3901639 0.4585987
vt 0.3622951 0.4076433
vt 0.3885246 0.4076433
vt 0.3885246 0.4585987
vt 0.3622951 0.4585987
vt 0.3344262 0.4076433
vt 0.3606557 0.4076433
vt 0.3606557 0.4585987
vt 0.3344262 0.4585987
vt 0.6131148 0.3535032
vt 0.6393443 0.3535032
vt 0.6393443 0.4044586
vt 0.6131148 0.4044586
vt 0.5852459 0.3535032
vt 0.6114754 0.3535032
vt 0.6114754 0.4044586
vt 0.5852459 0.4044586
vt 0.557377 0.3535032
vt 0.5836065 0.3535032
vt 0.5836065 0.4044586
vt 0.557377 0.4044586
vt 0.5295082 0.3535032
vt 0.5557377 0.3535032
vt 0.5557377 0.4044586
vt 0.5295082 0.4044586
vt 0.5016394 0.3535032
vt 0.5278689 0.3535032
vt 0.5278689 0.4044586
vt 0.5016394 0.4044586
vt 0.4737705 0.3535032
vt 0.5 0.3535032
vt 0.5 0.4044586
vt 0.4737705 0.4044586
vt 0.4459016 0.3535032
vt 0.4721311 0.3535032
vt 0.4721311 0.4044586
vt 0.4459016 0.4044586
vt 0.4180328 0.3535032
vt 0.4442623 0.3535032
vt 0.4442623 0.4044586
vt 0.4180328 0.4044586
vt 0.3901639 0.3535032
vt 0.4163934 0.3535032
vt 0.4163934 0.4044586
vt 0.3901639 0.4044586
vt 0.3622951 0.3535032
vt 0.3885246 0.3535032
vt 0.3885246 0.4044586
vt 0.3622951 0.4044586
vt 0.3344262 0.3535032
vt 0.3606557 0.3535032
vt 0.3606557 0.4044586
vt 0.3344262 0.4044586
vt 0.6131148 0.2993631
vt 0.6393443 0.2993631
vt 0.6393443 0.3503185
vt 0.6131148 0.3503185
vt 0.5852459 0.2993631
vt 0.6114754 0.2993631
vt 0.6114754 0.3503185
vt 0.5852459 0.3503185
vt 0.557377 0.2993631
vt 0.5836065 0.2993631
vt 0.5836065 0.3503185
vt 0.557377 0.3503185
vt 0.5295082 0.2993631
vt 0.5557377 0.2993631
vt 0.5557377 0.3503185
vt 0.5295082 0.3503185
vt 0.5016394 0.2993631
vt 0.5278689 0.2993631
vt 0.5278689 0.3503185
vt 0.5016394 0.3503185
vt 0.4737705 0.2993631
vt 0.5 0.2993631
vt 0.5 0.3503185
vt 0.4737705 0.3503185
vt 0.4459016 0.2993631
vt 0.4721311 0.2993631
vt 0.4721311 0.3503185
vt 0.4459016 0.3503185
vt 0.4180328 0.2993631
vt 0.4442623 0.2993631
vt 0.4442623 0.3503185
vt 0.4180328 0.3503185
vt 0.3901639 0.2993631
vt 0.4163934 0.2993631
vt 0.4163934 0.3503185
vt 0.3901639 0.3503185
vt 0.3622951 0.2993631
vt 0.3885246 0.2993631
vt 0.3885246 0.3503185
vt 0.3622951 0.3503185
vt 0.3344262 0.2993631
vt 0.3606557 0.2993631
vt 0.3606557 0.3503185
vt 0.3344262 0.3503185
vt 0.6131148 0.2452229
vt 0.6393443 0.2452229
vt 0.6393443 0.2961783
vt 0.6131148 0.2961783
vt 0.5852459 0.2452229
vt 0.6114754 0.2452229
vt 0.6114754 0.2961783
vt 0.5852459 0.2961783
vt 0.557377 0.2452229
vt 0.5836065 0.2452229
vt 0.5836065 0.2961783
vt 0.557377 0.2961783
vt 0.5295082 0.2452229
vt 0.5557377 0.2452229
vt 0.5557377 0.2961783
vt 0.5295082 0.2961783
vt 0.5016394 0.2452229
vt 0.5278689 0.2452229
vt 0.5278689 0.2961783
vt 0.5016394 0.2961783
vt 0.4737705 0.2452229
vt 0.5 0.2452229
vt 0.5 0.2961783
vt 0.4737705 0.2961783
vt 0.4459016 0.2452229
vt 0.4721311 0.2452229
vt 0.4721311 0.2961783
vt 0.4459016 0.2961783
vt 0.4180328 0.2452229
vt 0.4442623 0.2452229
vt 0.4442623 0.2961783
vt 0.4180328 0.2961783
vt 0.3901639 0.2452229
vt 0.4163934 0.2452229
vt 0.4163934 0.2961783
vt 0.3901639 0.2961783
vt 0.3622951 0.2452229
vt 0.3885246 0.2452229
vt 0.3885246 0.2961783
vt 0.3622951 0.2961783
vt 0.3344262 0.2452229
vt 0.3606557 0.2452229
vt 0.3606557 0.2961783
vt 0.3344262 0.2961783

# Normal
vn 0 0 -1

# Mesh description
g Earth_mesh_0010

# Faces
f 1/1/1 2/2/1 3/3/1 4/4/1
f 5/5/1 6/6/1 7/7/1 8/8/1
f 9/9/1 10/10/1 11/11/1 12/12/1
f 13/13/1 14/14/1 15/15/1 16/16/1
f 17/17/1 18/18/1 19/19/1 20/20/1
f 21/21/1 22/22/1 23/23/1 24/24/1
f 25/25/1 26/26/1 27/27/1 28/28/1
f 29/29/1 30/30/1 31/31/1 32/32/1
f 33/33/1 34/34/1 35/35/1 36/36/1
f 37/37/1 38/38/1 39/39/1 40/40/1
f 41/41/1 42/42/1 43/43/1 44/44/1
f 45/45/1 46/46/1 47/47/1 48/48/1
f 49/49/1 50/50/1 51/51/1 52/52/1
f 53/53/1 54/54/1 55/55/1 56/56/1
f 57/57/1 58/58/1 59/59/1 60/60/1
f 61/61/1 62/62/1 63/63/1 64/64/1
f 65/65/1 66/66/1 67/67/1 68/68/1
f 69/69/1 70/70/1 71/71/1 72/72/1
f 73/73/1 74/74/1 75/75/1 76/76/1
f 77/77/1 78/78/1 79/79/1 80/80/1
f 81/81/1 82/82/1 83/83/1 84/84/1
f 85/85/1 86/86/1 87/87/1 88/88/1
f 89/89/1 90/90/1 91/91/1 92/92/1
f 93/93/1 94/94/1 95/95/1 96/96/1
f 97/97/1 98/98/1 99/99/1 100/100/1
f 101/101/1 102/102/1 103/103/1 104/104/1
f 105/105/1 106/106/1 107/107/1 108/108/1
f 109/109/1 110/110/1 111/111/1 112/112/1
f 113/113/1 114/114/1 115/115/1 116/116/1
f 117/117/1 118/118/1 119/119/1 120/120/1
f 121/121/1 122/122/1 123/123/1 124/124/1
f 125/125/1 126/126/1 127/127/1 128/128/1
f 129/129/1 130/130/1 131/131/1 132/132/1
f 133/133/1 134/134/1 135/135/1 136/136/1
f 137/137/1 138/138/1 139/139/1 140/140/1
f 141/141/1 142/142/1 143/143/1 144/144/1
f 145/145/1 146/146/1 147/147/1 148/148/1
f 149/149/1 150/150/1 151/151/1 152/152/1
f 153/153/1 154/154/1 155/155/1 156/156/1
f 157/157/1 158/158/1 159/159/1 160/160/1
f 161/161/1 162/162/1 163/163/1 164/164/1
f 165/165/1 166/166/1 167/167/1 168/168/1
f 169/169/1 170/170/1 171/171/1 172/172/1
f 173/173/1 174/174/1 175/175/1 176/176/1
f 177/177/1 178/178/1 179/179/1 180/180/1
f 181/181/1 182/182/1 183/183/1 184/184/1
f 185/185/1 186/186/1 187/187/1 188/188/1
f 189/189/1 190/190/1 191/191/1 192/192/1
f 193/193/1 194/194/1 195/195/1 196/196/1
f 197/197/1 198/198/1 199/199/1 200/200/1
f 201/201/1 202/202/1 203/203/1 204/204/1
f 205/205/1 206/206/1 207/207/1 208/208/1
f 209/209/1 210/210/1 211/211/1 212/212/1
f 213/213/1 214/214/1 215/215/1 216/216/1
f 217/217/1 218/218/1 219/219/1 220/220/1
f 221/221/1 222/222/1 223/223/1 224/224/1
f 225/225/1 226/226/1 227/227/1 228/228/1
f 229/229/1 230/230/1 231/231/1 232/232/1
f 233/233/1 234/234/1 235/235/1 236/236/1
f 237/237/1 238/238/1 239/239/1 240/240/1
f 241/241/1 242/242/1 243/243/1 244/244/1
f 245/245/1 246/246/1 247/247/1 248/248/1
f 249/249/1 250/250/1 251/251/1 252/252/1
f 253/253/1 254/254/1 255/255/1 256/256/1
f 257/257/1 258/258/1 259/259/1 260/260/1
f 261/261/1 262/262/1 263/263/1 264/264/1
f 265/265/1 266/266/1 267/267/1 268/268/1
f 269/269/1 270/270/1 271/271/1 272/272/1
f 273/273/1 274/274/1 275/275/1 276/276/1
f 277/277/1 278/278/1 279/279/1 280/280/1
f 281/281/1 282/282/1 283/283/1 284/284/1
f 285/285/1 286/286/1 287/287/1 288/288/1
f 289/289/1 290/290/1 291/291/1 292/292/1
f 293/293/1 294/294/1 295/295/1 296/296/1
f 297/297/1 298/298/1 299/299/1 300/300/1
f 301/301/1 302/302/1 303/303/1 304/304/1
f 305/305/1 306/306/1 307/307/1 308/308/1
f 309/309/1 310/310/1 311/311/1 312/312/1
f 313/313/1 314/314/1 315/315/1 316/316/1
f 317/317/1 318/318/1 319/319/1 320/320/1
f 321/321/1 322/322/1 323/323/1 324/324/1
f 325/325/1 326/326/1 327/327/1 328/328/1
f 329/329/1 330/330/1 331/331/1 332/332/1
f 333/333/1 334/334/1 335/335/1 336/336/1
f 337/337/1 338/338/1 339/339/1 340/340/1
f 341/341/1 342/342/1 343/343/1 344/344/1
f 345/345/1 346/346/1 347/347/1 348/348/1
f 349/349/1 350/350/1 351/351/1 352/352/1
f 353/353/1 354/354/1 355/355/1 356/356/1
f 357/357/1 358/358/1 359/359/1 360/360/1
f 361/361/1 362/362/1 363/363/1 364/364/1
f 365/365/1 366/366/1 367/367/1 368/368/1
f 369/369/1 370/370/1 371/371/1 372/372/1
f 373/373/1 374/374/1 375/375/1 376/376/1
f 377/377/1 378/378/1 379/379/1 380/380/1
f 381/381/1 382/382/1 383/383/1 384/384/1
f 385/385/1 386/386/1 387/387/1 388/388/1
f 389/389/1 390/390/1 391/391/1 392/392/1
f 393/393/1 394/394/1 395/395/1 396/396/1

